<?xml version="1.0" encoding="UTF-8"?>
<svg width="724px" height="864px" viewBox="0 0 724 864" version="1.1" xmlns="http://www.w3.org/2000/svg" xmlns:xlink="http://www.w3.org/1999/xlink">
    <!-- Generator: Sketch 53 (72520) - https://sketchapp.com -->
    <title>single-application</title>
    <desc>Created with Sketch.</desc>
    <defs>
        <linearGradient x1="-2811.76471%" y1="100%" x2="-2811.76471%" y2="0%" id="linearGradient-arrow-1">
            <stop stop-color="#3F3177" stop-opacity="0" offset="8%"></stop>
            <stop stop-color="#3F3177" stop-opacity="0.6" offset="100%"></stop>
        </linearGradient>
        <linearGradient x1="-3182.35294%" y1="100%" x2="-3182.35294%" y2="0%" id="linearGradient-arrow-2">
            <stop stop-color="#272359" stop-opacity="0" offset="8%"></stop>
            <stop stop-color="#272359" stop-opacity="0.6" offset="100%"></stop>
        </linearGradient>
        <linearGradient x1="-2935.29412%" y1="100%" x2="-2935.29412%" y2="0%" id="linearGradient-arrow-3">
            <stop stop-color="#6262CC" stop-opacity="0" offset="8%"></stop>
            <stop stop-color="#6262CC" stop-opacity="0.6" offset="100%"></stop>
        </linearGradient>
        <linearGradient x1="-3058.82353%" y1="100%" x2="-3058.82353%" y2="0%" id="linearGradient-arrow-4">
            <stop stop-color="#9795F9" stop-opacity="0" offset="8%"></stop>
            <stop stop-color="#9795F9" stop-opacity="0.5" offset="100%"></stop>
        </linearGradient>
        <linearGradient x1="-1529.41176%" y1="100%" x2="-1529.41176%" y2="0%" id="linearGradient-arrow-5">
            <stop stop-color="#9795F9" stop-opacity="0" offset="8%"></stop>
            <stop stop-color="#9795F9" stop-opacity="0.5" offset="100%"></stop>
        </linearGradient>
        <linearGradient x1="-1900%" y1="100%" x2="-1900%" y2="0%" id="linearGradient-arrow-6">
            <stop stop-color="#272359" stop-opacity="0" offset="8%"></stop>
            <stop stop-color="#272359" stop-opacity="0.6" offset="100%"></stop>
        </linearGradient>
        <linearGradient x1="-1652.94118%" y1="100%" x2="-1652.94118%" y2="0%" id="linearGradient-arrow-7">
            <stop stop-color="#6262CC" stop-opacity="0" offset="8%"></stop>
            <stop stop-color="#6262CC" stop-opacity="0.6" offset="100%"></stop>
        </linearGradient>
        <linearGradient x1="-1776.47059%" y1="100%" x2="-1776.47059%" y2="0%" id="linearGradient-arrow-8">
            <stop stop-color="#3F3177" stop-opacity="0" offset="8%"></stop>
            <stop stop-color="#3F3177" stop-opacity="0.6" offset="100%"></stop>
        </linearGradient>
    </defs>
    <g id="Page-1" stroke="none" stroke-width="1" fill="none" fill-rule="evenodd">
        <g id="Desktop-HD-Copy-6" transform="translate(-691.000000, -217.000000)" fill-rule="nonzero">
            <g id="single-application" transform="translate(691.000000, 217.000000)">
                <g id="Group" transform="translate(413.172775, 0.000000)">
                    <polygon id="Path" fill="url(#linearGradient-arrow-8)" points="111.82199 426.315789 111.82199 663.157895 79.6020942 663.157895 79.6020942 426.315789"></polygon>
                    <polygon id="Path" fill="url(#linearGradient-arrow-2)" points="231.225131 426.315789 231.225131 558.947368 199.005236 558.947368 199.005236 426.315789"></polygon>
                    <polygon id="Path" fill="url(#linearGradient-arrow-3)" points="151.623037 426.315789 151.623037 615.789474 119.403141 615.789474 119.403141 426.315789"></polygon>
                    <polygon id="Path" fill="url(#linearGradient-arrow-4)" points="191.424084 426.315789 191.424084 587.368421 159.204188 587.368421 159.204188 426.315789"></polygon>
                    <path d="M200.900524,111.789474 L229.329843,111.789474 C230.376042,111.789474 231.225131,110.940632 231.225131,109.894737 L231.225131,81.4736842 C231.225131,80.4277895 230.376042,79.5789474 229.329843,79.5789474 L200.900524,79.5789474 C199.854325,79.5789474 199.005236,80.4277895 199.005236,81.4736842 L199.005236,109.894737 C199.005236,110.940632 199.854325,111.789474 200.900524,111.789474" id="Path" fill="#272359"></path>
                    <path d="M109.926702,79.5789474 L81.4973822,79.5789474 C80.4511832,79.5789474 79.6020942,80.4277895 79.6020942,81.4736842 L79.6020942,109.894737 C79.6020942,110.940632 80.4511832,111.789474 81.4973822,111.789474 L109.926702,111.789474 C110.972901,111.789474 111.82199,110.940632 111.82199,109.894737 L111.82199,81.4736842 C111.82199,80.4277895 110.972901,79.5789474 109.926702,79.5789474" id="Path" fill="#3F3177"></path>
                    <path d="M170.575916,0 L142.146597,0 C141.100398,0 140.251309,0.848842105 140.251309,1.89473684 L140.251309,30.3157895 C140.251309,31.3616842 141.100398,32.2105263 142.146597,32.2105263 L170.575916,32.2105263 C171.622115,32.2105263 172.471204,31.3616842 172.471204,30.3157895 L172.471204,1.89473684 C172.471204,0.848842105 171.622115,0 170.575916,0" id="Path" fill="#3F3177"></path>
                    <path d="M149.727749,39.7894737 L121.298429,39.7894737 C120.25223,39.7894737 119.403141,40.6383158 119.403141,41.6842105 L119.403141,70.1052632 C119.403141,71.1511579 120.25223,72 121.298429,72 L149.727749,72 C150.773948,72 151.623037,71.1511579 151.623037,70.1052632 L151.623037,41.6842105 C151.623037,40.6383158 150.773948,39.7894737 149.727749,39.7894737" id="Path" fill="#9795F9"></path>
                    <path d="M149.727749,79.5789474 L121.298429,79.5789474 C120.25223,79.5789474 119.403141,80.4277895 119.403141,81.4736842 L119.403141,109.894737 C119.403141,110.940632 120.25223,111.789474 121.298429,111.789474 L149.727749,111.789474 C150.773948,111.789474 151.623037,110.940632 151.623037,109.894737 L151.623037,81.4736842 C151.623037,80.4277895 150.773948,79.5789474 149.727749,79.5789474" id="Path" fill="#6262CC"></path>
                    <path d="M189.528796,39.7894737 L161.099476,39.7894737 C160.053277,39.7894737 159.204188,40.6383158 159.204188,41.6842105 L159.204188,70.1052632 C159.204188,71.1511579 160.053277,72 161.099476,72 L189.528796,72 C190.574995,72 191.424084,71.1511579 191.424084,70.1052632 L191.424084,41.6842105 C191.424084,40.6383158 190.574995,39.7894737 189.528796,39.7894737" id="Path" fill="#272359"></path>
                    <path d="M189.528796,79.5789474 L161.099476,79.5789474 C160.053277,79.5789474 159.204188,80.4277895 159.204188,81.4736842 L159.204188,109.894737 C159.204188,110.940632 160.053277,111.789474 161.099476,111.789474 L189.528796,111.789474 C190.574995,111.789474 191.424084,110.940632 191.424084,109.894737 L191.424084,81.4736842 C191.424084,80.4277895 190.574995,79.5789474 189.528796,79.5789474" id="Path" fill="#E4E4E4"></path>
                    <path d="M161.099476,159.157895 L189.528796,159.157895 C190.574995,159.157895 191.424084,160.006737 191.424084,161.052632 L191.424084,189.473684 C191.424084,190.519579 190.574995,191.368421 189.528796,191.368421 L161.099476,191.368421 C160.053277,191.368421 159.204188,190.519579 159.204188,189.473684 L159.204188,161.052632 C159.204188,160.006737 160.053277,159.157895 161.099476,159.157895" id="Path" fill="#6262CC"></path>
                    <path d="M161.099476,198.947368 L189.528796,198.947368 C190.574995,198.947368 191.424084,199.796211 191.424084,200.842105 L191.424084,229.263158 C191.424084,230.309053 190.574995,231.157895 189.528796,231.157895 L161.099476,231.157895 C160.053277,231.157895 159.204188,230.309053 159.204188,229.263158 L159.204188,200.842105 C159.204188,199.796211 160.053277,198.947368 161.099476,198.947368" id="Path" fill="#3F3177"></path>
                    <path d="M161.099476,119.368421 L189.528796,119.368421 C190.574995,119.368421 191.424084,120.217263 191.424084,121.263158 L191.424084,149.684211 C191.424084,150.730105 190.574995,151.578947 189.528796,151.578947 L161.099476,151.578947 C160.053277,151.578947 159.204188,150.730105 159.204188,149.684211 L159.204188,121.263158 C159.204188,120.217263 160.053277,119.368421 161.099476,119.368421" id="Path" fill="#9795F9"></path>
                    <path d="M161.099476,238.736842 L189.528796,238.736842 C190.574995,238.736842 191.424084,239.585684 191.424084,240.631579 L191.424084,269.052632 C191.424084,270.098526 190.574995,270.947368 189.528796,270.947368 L161.099476,270.947368 C160.053277,270.947368 159.204188,270.098526 159.204188,269.052632 L159.204188,240.631579 C159.204188,239.585684 160.053277,238.736842 161.099476,238.736842" id="Path" fill="#272359"></path>
                    <path d="M121.298429,159.157895 L149.727749,159.157895 C150.773948,159.157895 151.623037,160.006737 151.623037,161.052632 L151.623037,189.473684 C151.623037,190.519579 150.773948,191.368421 149.727749,191.368421 L121.298429,191.368421 C120.25223,191.368421 119.403141,190.519579 119.403141,189.473684 L119.403141,161.052632 C119.403141,160.006737 120.25223,159.157895 121.298429,159.157895" id="Path" fill="#9795F9"></path>
                    <path d="M121.298429,198.947368 L149.727749,198.947368 C150.773948,198.947368 151.623037,199.796211 151.623037,200.842105 L151.623037,229.263158 C151.623037,230.309053 150.773948,231.157895 149.727749,231.157895 L121.298429,231.157895 C120.25223,231.157895 119.403141,230.309053 119.403141,229.263158 L119.403141,200.842105 C119.403141,199.796211 120.25223,198.947368 121.298429,198.947368" id="Path" fill="#272359"></path>
                    <path d="M121.298429,119.368421 L149.727749,119.368421 C150.773948,119.368421 151.623037,120.217263 151.623037,121.263158 L151.623037,149.684211 C151.623037,150.730105 150.773948,151.578947 149.727749,151.578947 L121.298429,151.578947 C120.25223,151.578947 119.403141,150.730105 119.403141,149.684211 L119.403141,121.263158 C119.403141,120.217263 120.25223,119.368421 121.298429,119.368421" id="Path" fill="#E4E4E4"></path>
                    <path d="M121.298429,238.736842 L149.727749,238.736842 C150.773948,238.736842 151.623037,239.585684 151.623037,240.631579 L151.623037,269.052632 C151.623037,270.098526 150.773948,270.947368 149.727749,270.947368 L121.298429,270.947368 C120.25223,270.947368 119.403141,270.098526 119.403141,269.052632 L119.403141,240.631579 C119.403141,239.585684 120.25223,238.736842 121.298429,238.736842" id="Path" fill="#6262CC"></path>
                    <path d="M81.4973822,159.157895 L109.926702,159.157895 C110.972901,159.157895 111.82199,160.006737 111.82199,161.052632 L111.82199,189.473684 C111.82199,190.519579 110.972901,191.368421 109.926702,191.368421 L81.4973822,191.368421 C80.4511832,191.368421 79.6020942,190.519579 79.6020942,189.473684 L79.6020942,161.052632 C79.6020942,160.006737 80.4511832,159.157895 81.4973822,159.157895" id="Path" fill="#272359"></path>
                    <path d="M81.4973822,198.947368 L109.926702,198.947368 C110.972901,198.947368 111.82199,199.796211 111.82199,200.842105 L111.82199,229.263158 C111.82199,230.309053 110.972901,231.157895 109.926702,231.157895 L81.4973822,231.157895 C80.4511832,231.157895 79.6020942,230.309053 79.6020942,229.263158 L79.6020942,200.842105 C79.6020942,199.796211 80.4511832,198.947368 81.4973822,198.947368" id="Path" fill="#3F3177"></path>
                    <path d="M81.4973822,119.368421 L109.926702,119.368421 C110.972901,119.368421 111.82199,120.217263 111.82199,121.263158 L111.82199,149.684211 C111.82199,150.730105 110.972901,151.578947 109.926702,151.578947 L81.4973822,151.578947 C80.4511832,151.578947 79.6020942,150.730105 79.6020942,149.684211 L79.6020942,121.263158 C79.6020942,120.217263 80.4511832,119.368421 81.4973822,119.368421" id="Path" fill="#6262CC"></path>
                    <path d="M81.4973822,238.736842 L109.926702,238.736842 C110.972901,238.736842 111.82199,239.585684 111.82199,240.631579 L111.82199,269.052632 C111.82199,270.098526 110.972901,270.947368 109.926702,270.947368 L81.4973822,270.947368 C80.4511832,270.947368 79.6020942,270.098526 79.6020942,269.052632 L79.6020942,240.631579 C79.6020942,239.585684 80.4511832,238.736842 81.4973822,238.736842" id="Path" fill="#9795F9"></path>
                    <path d="M41.6963351,159.157895 L70.1256545,159.157895 C71.1718534,159.157895 72.0209424,160.006737 72.0209424,161.052632 L72.0209424,189.473684 C72.0209424,190.519579 71.1718534,191.368421 70.1256545,191.368421 L41.6963351,191.368421 C40.6501361,191.368421 39.8010471,190.519579 39.8010471,189.473684 L39.8010471,161.052632 C39.8010471,160.006737 40.6501361,159.157895 41.6963351,159.157895" id="Path" fill="#272359"></path>
                    <path d="M41.6963351,119.368421 L70.1256545,119.368421 C71.1718534,119.368421 72.0209424,120.217263 72.0209424,121.263158 L72.0209424,149.684211 C72.0209424,150.730105 71.1718534,151.578947 70.1256545,151.578947 L41.6963351,151.578947 C40.6501361,151.578947 39.8010471,150.730105 39.8010471,149.684211 L39.8010471,121.263158 C39.8010471,120.217263 40.6501361,119.368421 41.6963351,119.368421" id="Path" fill="#9795F9"></path>
                    <path d="M1.89528796,159.157895 L30.3246073,159.157895 C31.3708063,159.157895 32.2198953,160.006737 32.2198953,161.052632 L32.2198953,189.473684 C32.2198953,190.519579 31.3708063,191.368421 30.3246073,191.368421 L1.89528796,191.368421 C0.849089005,191.368421 0,190.519579 0,189.473684 L0,161.052632 C0,160.006737 0.849089005,159.157895 1.89528796,159.157895" id="Path" fill="#3F3177"></path>
                    <path d="M229.329843,231.157895 L200.900524,231.157895 C199.854325,231.157895 199.005236,230.309053 199.005236,229.263158 L199.005236,200.842105 C199.005236,199.796211 199.854325,198.947368 200.900524,198.947368 L229.329843,198.947368 C230.376042,198.947368 231.225131,199.796211 231.225131,200.842105 L231.225131,229.263158 C231.225131,230.309053 230.376042,231.157895 229.329843,231.157895" id="Path" fill="#6262CC"></path>
                    <path d="M229.329843,191.368421 L200.900524,191.368421 C199.854325,191.368421 199.005236,190.519579 199.005236,189.473684 L199.005236,161.052632 C199.005236,160.006737 199.854325,159.157895 200.900524,159.157895 L229.329843,159.157895 C230.376042,159.157895 231.225131,160.006737 231.225131,161.052632 L231.225131,189.473684 C231.225131,190.519579 230.376042,191.368421 229.329843,191.368421" id="Path" fill="#3F3177"></path>
                    <path d="M229.329843,270.947368 L200.900524,270.947368 C199.854325,270.947368 199.005236,270.098526 199.005236,269.052632 L199.005236,240.631579 C199.005236,239.585684 199.854325,238.736842 200.900524,238.736842 L229.329843,238.736842 C230.376042,238.736842 231.225131,239.585684 231.225131,240.631579 L231.225131,269.052632 C231.225131,270.098526 230.376042,270.947368 229.329843,270.947368" id="Path" fill="#9795F9"></path>
                    <path d="M229.329843,151.578947 L200.900524,151.578947 C199.854325,151.578947 199.005236,150.730105 199.005236,149.684211 L199.005236,121.263158 C199.005236,120.217263 199.854325,119.368421 200.900524,119.368421 L229.329843,119.368421 C230.376042,119.368421 231.225131,120.217263 231.225131,121.263158 L231.225131,149.684211 C231.225131,150.730105 230.376042,151.578947 229.329843,151.578947" id="Path" fill="#272359"></path>
                    <path d="M269.13089,191.368421 L240.701571,191.368421 C239.655372,191.368421 238.806283,190.519579 238.806283,189.473684 L238.806283,161.052632 C238.806283,160.006737 239.655372,159.157895 240.701571,159.157895 L269.13089,159.157895 C270.177089,159.157895 271.026178,160.006737 271.026178,161.052632 L271.026178,189.473684 C271.026178,190.519579 270.177089,191.368421 269.13089,191.368421" id="Path" fill="#272359"></path>
                    <path d="M269.13089,151.578947 L240.701571,151.578947 C239.655372,151.578947 238.806283,150.730105 238.806283,149.684211 L238.806283,121.263158 C238.806283,120.217263 239.655372,119.368421 240.701571,119.368421 L269.13089,119.368421 C270.177089,119.368421 271.026178,120.217263 271.026178,121.263158 L271.026178,149.684211 C271.026178,150.730105 270.177089,151.578947 269.13089,151.578947" id="Path" fill="#6262CC"></path>
                    <path d="M308.931937,191.368421 L280.502618,191.368421 C279.456419,191.368421 278.60733,190.519579 278.60733,189.473684 L278.60733,161.052632 C278.60733,160.006737 279.456419,159.157895 280.502618,159.157895 L308.931937,159.157895 C309.978136,159.157895 310.827225,160.006737 310.827225,161.052632 L310.827225,189.473684 C310.827225,190.519579 309.978136,191.368421 308.931937,191.368421" id="Path" fill="#3F3177"></path>
                    <path d="M200.900524,390.315789 L229.329843,390.315789 C230.376042,390.315789 231.225131,389.466947 231.225131,388.421053 L231.225131,360 C231.225131,358.954105 230.376042,358.105263 229.329843,358.105263 L200.900524,358.105263 C199.854325,358.105263 199.005236,358.954105 199.005236,360 L199.005236,388.421053 C199.005236,389.466947 199.854325,390.315789 200.900524,390.315789" id="Path" fill="#3F3177"></path>
                    <path d="M200.900524,350.526316 L229.329843,350.526316 C230.376042,350.526316 231.225131,349.677474 231.225131,348.631579 L231.225131,320.210526 C231.225131,319.164632 230.376042,318.315789 229.329843,318.315789 L200.900524,318.315789 C199.854325,318.315789 199.005236,319.164632 199.005236,320.210526 L199.005236,348.631579 C199.005236,349.677474 199.854325,350.526316 200.900524,350.526316" id="Path" fill="#272359"></path>
                    <path d="M200.900524,430.105263 L229.329843,430.105263 C230.376042,430.105263 231.225131,429.256421 231.225131,428.210526 L231.225131,399.789474 C231.225131,398.743579 230.376042,397.894737 229.329843,397.894737 L200.900524,397.894737 C199.854325,397.894737 199.005236,398.743579 199.005236,399.789474 L199.005236,428.210526 C199.005236,429.256421 199.854325,430.105263 200.900524,430.105263" id="Path" fill="#272359"></path>
                    <path d="M200.900524,310.736842 L229.329843,310.736842 C230.376042,310.736842 231.225131,309.888 231.225131,308.842105 L231.225131,280.421053 C231.225131,279.375158 230.376042,278.526316 229.329843,278.526316 L200.900524,278.526316 C199.854325,278.526316 199.005236,279.375158 199.005236,280.421053 L199.005236,308.842105 C199.005236,309.888 199.854325,310.736842 200.900524,310.736842" id="Path" fill="#E4E4E4"></path>
                    <path d="M109.926702,318.315789 L81.4973822,318.315789 C80.4511832,318.315789 79.6020942,319.164632 79.6020942,320.210526 L79.6020942,348.631579 C79.6020942,349.677474 80.4511832,350.526316 81.4973822,350.526316 L109.926702,350.526316 C110.972901,350.526316 111.82199,349.677474 111.82199,348.631579 L111.82199,320.210526 C111.82199,319.164632 110.972901,318.315789 109.926702,318.315789" id="Path" fill="#272359"></path>
                    <path d="M109.926702,358.105263 L81.4973822,358.105263 C80.4511832,358.105263 79.6020942,358.954105 79.6020942,360 L79.6020942,388.421053 C79.6020942,389.466947 80.4511832,390.315789 81.4973822,390.315789 L109.926702,390.315789 C110.972901,390.315789 111.82199,389.466947 111.82199,388.421053 L111.82199,360 C111.82199,358.954105 110.972901,358.105263 109.926702,358.105263" id="Path" fill="#6262CC"></path>
                    <path d="M109.926702,278.526316 L81.4973822,278.526316 C80.4511832,278.526316 79.6020942,279.375158 79.6020942,280.421053 L79.6020942,308.842105 C79.6020942,309.888 80.4511832,310.736842 81.4973822,310.736842 L109.926702,310.736842 C110.972901,310.736842 111.82199,309.888 111.82199,308.842105 L111.82199,280.421053 C111.82199,279.375158 110.972901,278.526316 109.926702,278.526316" id="Path" fill="#9795F9"></path>
                    <path d="M109.926702,397.894737 L81.4973822,397.894737 C80.4511832,397.894737 79.6020942,398.743579 79.6020942,399.789474 L79.6020942,428.210526 C79.6020942,429.256421 80.4511832,430.105263 81.4973822,430.105263 L109.926702,430.105263 C110.972901,430.105263 111.82199,429.256421 111.82199,428.210526 L111.82199,399.789474 C111.82199,398.743579 110.972901,397.894737 109.926702,397.894737" id="Path" fill="#3F3177"></path>
                    <path d="M149.727749,318.315789 L121.298429,318.315789 C120.25223,318.315789 119.403141,319.164632 119.403141,320.210526 L119.403141,348.631579 C119.403141,349.677474 120.25223,350.526316 121.298429,350.526316 L149.727749,350.526316 C150.773948,350.526316 151.623037,349.677474 151.623037,348.631579 L151.623037,320.210526 C151.623037,319.164632 150.773948,318.315789 149.727749,318.315789" id="Path" fill="#3F3177"></path>
                    <path d="M149.727749,358.105263 L121.298429,358.105263 C120.25223,358.105263 119.403141,358.954105 119.403141,360 L119.403141,388.421053 C119.403141,389.466947 120.25223,390.315789 121.298429,390.315789 L149.727749,390.315789 C150.773948,390.315789 151.623037,389.466947 151.623037,388.421053 L151.623037,360 C151.623037,358.954105 150.773948,358.105263 149.727749,358.105263" id="Path" fill="#9795F9"></path>
                    <path d="M149.727749,278.526316 L121.298429,278.526316 C120.25223,278.526316 119.403141,279.375158 119.403141,280.421053 L119.403141,308.842105 C119.403141,309.888 120.25223,310.736842 121.298429,310.736842 L149.727749,310.736842 C150.773948,310.736842 151.623037,309.888 151.623037,308.842105 L151.623037,280.421053 C151.623037,279.375158 150.773948,278.526316 149.727749,278.526316" id="Path" fill="#3F3177"></path>
                    <path d="M149.727749,397.894737 L121.298429,397.894737 C120.25223,397.894737 119.403141,398.743579 119.403141,399.789474 L119.403141,428.210526 C119.403141,429.256421 120.25223,430.105263 121.298429,430.105263 L149.727749,430.105263 C150.773948,430.105263 151.623037,429.256421 151.623037,428.210526 L151.623037,399.789474 C151.623037,398.743579 150.773948,397.894737 149.727749,397.894737" id="Path" fill="#6262CC"></path>
                    <path d="M189.528796,318.315789 L161.099476,318.315789 C160.053277,318.315789 159.204188,319.164632 159.204188,320.210526 L159.204188,348.631579 C159.204188,349.677474 160.053277,350.526316 161.099476,350.526316 L189.528796,350.526316 C190.574995,350.526316 191.424084,349.677474 191.424084,348.631579 L191.424084,320.210526 C191.424084,319.164632 190.574995,318.315789 189.528796,318.315789" id="Path" fill="#3F3177"></path>
                    <path d="M189.528796,358.105263 L161.099476,358.105263 C160.053277,358.105263 159.204188,358.954105 159.204188,360 L159.204188,388.421053 C159.204188,389.466947 160.053277,390.315789 161.099476,390.315789 L189.528796,390.315789 C190.574995,390.315789 191.424084,389.466947 191.424084,388.421053 L191.424084,360 C191.424084,358.954105 190.574995,358.105263 189.528796,358.105263" id="Path" fill="#272359"></path>
                    <path d="M189.528796,278.526316 L161.099476,278.526316 C160.053277,278.526316 159.204188,279.375158 159.204188,280.421053 L159.204188,308.842105 C159.204188,309.888 160.053277,310.736842 161.099476,310.736842 L189.528796,310.736842 C190.574995,310.736842 191.424084,309.888 191.424084,308.842105 L191.424084,280.421053 C191.424084,279.375158 190.574995,278.526316 189.528796,278.526316" id="Path" fill="#272359"></path>
                    <path d="M189.528796,397.894737 L161.099476,397.894737 C160.053277,397.894737 159.204188,398.743579 159.204188,399.789474 L159.204188,428.210526 C159.204188,429.256421 160.053277,430.105263 161.099476,430.105263 L189.528796,430.105263 C190.574995,430.105263 191.424084,429.256421 191.424084,428.210526 L191.424084,399.789474 C191.424084,398.743579 190.574995,397.894737 189.528796,397.894737" id="Path" fill="#9795F9"></path>
                </g>
                <g id="Group" transform="translate(0.000000, 236.842105)">
                    <polygon id="Path" fill="url(#linearGradient-arrow-5)" points="111.82199 426.315789 111.82199 663.157895 79.6020942 663.157895 79.6020942 426.315789"></polygon>
                    <polygon id="Path" fill="url(#linearGradient-arrow-6)" points="231.225131 426.315789 231.225131 558.947368 199.005236 558.947368 199.005236 426.315789"></polygon>
                    <polygon id="Path" fill="url(#linearGradient-arrow-7)" points="151.623037 426.315789 151.623037 615.789474 119.403141 615.789474 119.403141 426.315789"></polygon>
                    <polygon id="Path" fill="url(#linearGradient-arrow-8)" points="191.424084 426.315789 191.424084 587.368421 159.204188 587.368421 159.204188 426.315789"></polygon>
                    <path d="M170.575916,32.2105263 L142.146597,32.2105263 C141.100398,32.2105263 140.251309,31.3616842 140.251309,30.3157895 L140.251309,1.89473684 C140.251309,0.848842105 141.100398,0 142.146597,0 L170.575916,0 C171.622115,0 172.471204,0.848842105 172.471204,1.89473684 L172.471204,30.3157895 C172.471204,31.3616842 171.622115,32.2105263 170.575916,32.2105263" id="Path" fill="#6262CC"></path>
                    <path d="M308.931937,159.157895 L280.502618,159.157895 C279.456419,159.157895 278.60733,160.006737 278.60733,161.052632 L278.60733,189.473684 C278.60733,190.519579 279.456419,191.368421 280.502618,191.368421 L308.931937,191.368421 C309.978136,191.368421 310.827225,190.519579 310.827225,189.473684 L310.827225,161.052632 C310.827225,160.006737 309.978136,159.157895 308.931937,159.157895" id="Path" fill="#272359"></path>
                    <path d="M240.701571,151.578947 L269.13089,151.578947 C270.177089,151.578947 271.026178,150.730105 271.026178,149.684211 L271.026178,121.263158 C271.026178,120.217263 270.177089,119.368421 269.13089,119.368421 L240.701571,119.368421 C239.655372,119.368421 238.806283,120.217263 238.806283,121.263158 L238.806283,149.684211 C238.806283,150.730105 239.655372,151.578947 240.701571,151.578947" id="Path" fill="#6262CC"></path>
                    <path d="M240.701571,191.368421 L269.13089,191.368421 C270.177089,191.368421 271.026178,190.519579 271.026178,189.473684 L271.026178,161.052632 C271.026178,160.006737 270.177089,159.157895 269.13089,159.157895 L240.701571,159.157895 C239.655372,159.157895 238.806283,160.006737 238.806283,161.052632 L238.806283,189.473684 C238.806283,190.519579 239.655372,191.368421 240.701571,191.368421" id="Path" fill="#9795F9"></path>
                    <path d="M200.900524,151.578947 L229.329843,151.578947 C230.376042,151.578947 231.225131,150.730105 231.225131,149.684211 L231.225131,121.263158 C231.225131,120.217263 230.376042,119.368421 229.329843,119.368421 L200.900524,119.368421 C199.854325,119.368421 199.005236,120.217263 199.005236,121.263158 L199.005236,149.684211 C199.005236,150.730105 199.854325,151.578947 200.900524,151.578947" id="Path" fill="#9795F9"></path>
                    <path d="M200.900524,111.789474 L229.329843,111.789474 C230.376042,111.789474 231.225131,110.940632 231.225131,109.894737 L231.225131,81.4736842 C231.225131,80.4277895 230.376042,79.5789474 229.329843,79.5789474 L200.900524,79.5789474 C199.854325,79.5789474 199.005236,80.4277895 199.005236,81.4736842 L199.005236,109.894737 C199.005236,110.940632 199.854325,111.789474 200.900524,111.789474" id="Path" fill="#272359"></path>
                    <path d="M200.900524,191.368421 L229.329843,191.368421 C230.376042,191.368421 231.225131,190.519579 231.225131,189.473684 L231.225131,161.052632 C231.225131,160.006737 230.376042,159.157895 229.329843,159.157895 L200.900524,159.157895 C199.854325,159.157895 199.005236,160.006737 199.005236,161.052632 L199.005236,189.473684 C199.005236,190.519579 199.854325,191.368421 200.900524,191.368421" id="Path" fill="#E4E4E4"></path>
                    <path d="M161.099476,151.578947 L189.528796,151.578947 C190.574995,151.578947 191.424084,150.730105 191.424084,149.684211 L191.424084,121.263158 C191.424084,120.217263 190.574995,119.368421 189.528796,119.368421 L161.099476,119.368421 C160.053277,119.368421 159.204188,120.217263 159.204188,121.263158 L159.204188,149.684211 C159.204188,150.730105 160.053277,151.578947 161.099476,151.578947" id="Path" fill="#272359"></path>
                    <path d="M161.099476,111.789474 L189.528796,111.789474 C190.574995,111.789474 191.424084,110.940632 191.424084,109.894737 L191.424084,81.4736842 C191.424084,80.4277895 190.574995,79.5789474 189.528796,79.5789474 L161.099476,79.5789474 C160.053277,79.5789474 159.204188,80.4277895 159.204188,81.4736842 L159.204188,109.894737 C159.204188,110.940632 160.053277,111.789474 161.099476,111.789474" id="Path" fill="#3F3177"></path>
                    <path d="M161.099476,191.368421 L189.528796,191.368421 C190.574995,191.368421 191.424084,190.519579 191.424084,189.473684 L191.424084,161.052632 C191.424084,160.006737 190.574995,159.157895 189.528796,159.157895 L161.099476,159.157895 C160.053277,159.157895 159.204188,160.006737 159.204188,161.052632 L159.204188,189.473684 C159.204188,190.519579 160.053277,191.368421 161.099476,191.368421" id="Path" fill="#6262CC"></path>
                    <path d="M161.099476,72 L189.528796,72 C190.574995,72 191.424084,71.1511579 191.424084,70.1052632 L191.424084,41.6842105 C191.424084,40.6383158 190.574995,39.7894737 189.528796,39.7894737 L161.099476,39.7894737 C160.053277,39.7894737 159.204188,40.6383158 159.204188,41.6842105 L159.204188,70.1052632 C159.204188,71.1511579 160.053277,72 161.099476,72" id="Path" fill="#9795F9"></path>
                    <path d="M121.298429,151.578947 L149.727749,151.578947 C150.773948,151.578947 151.623037,150.730105 151.623037,149.684211 L151.623037,121.263158 C151.623037,120.217263 150.773948,119.368421 149.727749,119.368421 L121.298429,119.368421 C120.25223,119.368421 119.403141,120.217263 119.403141,121.263158 L119.403141,149.684211 C119.403141,150.730105 120.25223,151.578947 121.298429,151.578947" id="Path" fill="#272359"></path>
                    <path d="M121.298429,111.789474 L149.727749,111.789474 C150.773948,111.789474 151.623037,110.940632 151.623037,109.894737 L151.623037,81.4736842 C151.623037,80.4277895 150.773948,79.5789474 149.727749,79.5789474 L121.298429,79.5789474 C120.25223,79.5789474 119.403141,80.4277895 119.403141,81.4736842 L119.403141,109.894737 C119.403141,110.940632 120.25223,111.789474 121.298429,111.789474" id="Path" fill="#6262CC"></path>
                    <path d="M121.298429,191.368421 L149.727749,191.368421 C150.773948,191.368421 151.623037,190.519579 151.623037,189.473684 L151.623037,161.052632 C151.623037,160.006737 150.773948,159.157895 149.727749,159.157895 L121.298429,159.157895 C120.25223,159.157895 119.403141,160.006737 119.403141,161.052632 L119.403141,189.473684 C119.403141,190.519579 120.25223,191.368421 121.298429,191.368421" id="Path" fill="#9795F9"></path>
                    <path d="M121.298429,72 L149.727749,72 C150.773948,72 151.623037,71.1511579 151.623037,70.1052632 L151.623037,41.6842105 C151.623037,40.6383158 150.773948,39.7894737 149.727749,39.7894737 L121.298429,39.7894737 C120.25223,39.7894737 119.403141,40.6383158 119.403141,41.6842105 L119.403141,70.1052632 C119.403141,71.1511579 120.25223,72 121.298429,72" id="Path" fill="#3F3177"></path>
                    <path d="M81.4973822,151.578947 L109.926702,151.578947 C110.972901,151.578947 111.82199,150.730105 111.82199,149.684211 L111.82199,121.263158 C111.82199,120.217263 110.972901,119.368421 109.926702,119.368421 L81.4973822,119.368421 C80.4511832,119.368421 79.6020942,120.217263 79.6020942,121.263158 L79.6020942,149.684211 C79.6020942,150.730105 80.4511832,151.578947 81.4973822,151.578947" id="Path" fill="#3F3177"></path>
                    <path d="M81.4973822,111.789474 L109.926702,111.789474 C110.972901,111.789474 111.82199,110.940632 111.82199,109.894737 L111.82199,81.4736842 C111.82199,80.4277895 110.972901,79.5789474 109.926702,79.5789474 L81.4973822,79.5789474 C80.4511832,79.5789474 79.6020942,80.4277895 79.6020942,81.4736842 L79.6020942,109.894737 C79.6020942,110.940632 80.4511832,111.789474 81.4973822,111.789474" id="Path" fill="#9795F9"></path>
                    <path d="M81.4973822,191.368421 L109.926702,191.368421 C110.972901,191.368421 111.82199,190.519579 111.82199,189.473684 L111.82199,161.052632 C111.82199,160.006737 110.972901,159.157895 109.926702,159.157895 L81.4973822,159.157895 C80.4511832,159.157895 79.6020942,160.006737 79.6020942,161.052632 L79.6020942,189.473684 C79.6020942,190.519579 80.4511832,191.368421 81.4973822,191.368421" id="Path" fill="#3F3177"></path>
                    <path d="M41.6963351,151.578947 L70.1256545,151.578947 C71.1718534,151.578947 72.0209424,150.730105 72.0209424,149.684211 L72.0209424,121.263158 C72.0209424,120.217263 71.1718534,119.368421 70.1256545,119.368421 L41.6963351,119.368421 C40.6501361,119.368421 39.8010471,120.217263 39.8010471,121.263158 L39.8010471,149.684211 C39.8010471,150.730105 40.6501361,151.578947 41.6963351,151.578947" id="Path" fill="#3F3177"></path>
                    <path d="M41.6963351,191.368421 L70.1256545,191.368421 C71.1718534,191.368421 72.0209424,190.519579 72.0209424,189.473684 L72.0209424,161.052632 C72.0209424,160.006737 71.1718534,159.157895 70.1256545,159.157895 L41.6963351,159.157895 C40.6501361,159.157895 39.8010471,160.006737 39.8010471,161.052632 L39.8010471,189.473684 C39.8010471,190.519579 40.6501361,191.368421 41.6963351,191.368421" id="Path" fill="#272359"></path>
                    <path d="M30.3246073,159.157895 L1.89528796,159.157895 C0.849089005,159.157895 0,160.006737 0,161.052632 L0,189.473684 C0,190.519579 0.849089005,191.368421 1.89528796,191.368421 L30.3246073,191.368421 C31.3708063,191.368421 32.2198953,190.519579 32.2198953,189.473684 L32.2198953,161.052632 C32.2198953,160.006737 31.3708063,159.157895 30.3246073,159.157895" id="Path" fill="#E4E4E4"></path>
                    <path d="M109.926702,310.736842 L81.4973822,310.736842 C80.4511832,310.736842 79.6020942,309.888 79.6020942,308.842105 L79.6020942,280.421053 C79.6020942,279.375158 80.4511832,278.526316 81.4973822,278.526316 L109.926702,278.526316 C110.972901,278.526316 111.82199,279.375158 111.82199,280.421053 L111.82199,308.842105 C111.82199,309.888 110.972901,310.736842 109.926702,310.736842" id="Path" fill="#9795F9"></path>
                    <path d="M109.926702,270.947368 L81.4973822,270.947368 C80.4511832,270.947368 79.6020942,270.098526 79.6020942,269.052632 L79.6020942,240.631579 C79.6020942,239.585684 80.4511832,238.736842 81.4973822,238.736842 L109.926702,238.736842 C110.972901,238.736842 111.82199,239.585684 111.82199,240.631579 L111.82199,269.052632 C111.82199,270.098526 110.972901,270.947368 109.926702,270.947368" id="Path" fill="#272359"></path>
                    <path d="M109.926702,350.526316 L81.4973822,350.526316 C80.4511832,350.526316 79.6020942,349.677474 79.6020942,348.631579 L79.6020942,320.210526 C79.6020942,319.164632 80.4511832,318.315789 81.4973822,318.315789 L109.926702,318.315789 C110.972901,318.315789 111.82199,319.164632 111.82199,320.210526 L111.82199,348.631579 C111.82199,349.677474 110.972901,350.526316 109.926702,350.526316" id="Path" fill="#E4E4E4"></path>
                    <path d="M109.926702,231.157895 L81.4973822,231.157895 C80.4511832,231.157895 79.6020942,230.309053 79.6020942,229.263158 L79.6020942,200.842105 C79.6020942,199.796211 80.4511832,198.947368 81.4973822,198.947368 L109.926702,198.947368 C110.972901,198.947368 111.82199,199.796211 111.82199,200.842105 L111.82199,229.263158 C111.82199,230.309053 110.972901,231.157895 109.926702,231.157895" id="Path" fill="#6262CC"></path>
                    <path d="M149.727749,310.736842 L121.298429,310.736842 C120.25223,310.736842 119.403141,309.888 119.403141,308.842105 L119.403141,280.421053 C119.403141,279.375158 120.25223,278.526316 121.298429,278.526316 L149.727749,278.526316 C150.773948,278.526316 151.623037,279.375158 151.623037,280.421053 L151.623037,308.842105 C151.623037,309.888 150.773948,310.736842 149.727749,310.736842" id="Path" fill="#272359"></path>
                    <path d="M149.727749,270.947368 L121.298429,270.947368 C120.25223,270.947368 119.403141,270.098526 119.403141,269.052632 L119.403141,240.631579 C119.403141,239.585684 120.25223,238.736842 121.298429,238.736842 L149.727749,238.736842 C150.773948,238.736842 151.623037,239.585684 151.623037,240.631579 L151.623037,269.052632 C151.623037,270.098526 150.773948,270.947368 149.727749,270.947368" id="Path" fill="#3F3177"></path>
                    <path d="M149.727749,350.526316 L121.298429,350.526316 C120.25223,350.526316 119.403141,349.677474 119.403141,348.631579 L119.403141,320.210526 C119.403141,319.164632 120.25223,318.315789 121.298429,318.315789 L149.727749,318.315789 C150.773948,318.315789 151.623037,319.164632 151.623037,320.210526 L151.623037,348.631579 C151.623037,349.677474 150.773948,350.526316 149.727749,350.526316" id="Path" fill="#6262CC"></path>
                    <path d="M149.727749,231.157895 L121.298429,231.157895 C120.25223,231.157895 119.403141,230.309053 119.403141,229.263158 L119.403141,200.842105 C119.403141,199.796211 120.25223,198.947368 121.298429,198.947368 L149.727749,198.947368 C150.773948,198.947368 151.623037,199.796211 151.623037,200.842105 L151.623037,229.263158 C151.623037,230.309053 150.773948,231.157895 149.727749,231.157895" id="Path" fill="#9795F9"></path>
                    <path d="M189.528796,310.736842 L161.099476,310.736842 C160.053277,310.736842 159.204188,309.888 159.204188,308.842105 L159.204188,280.421053 C159.204188,279.375158 160.053277,278.526316 161.099476,278.526316 L189.528796,278.526316 C190.574995,278.526316 191.424084,279.375158 191.424084,280.421053 L191.424084,308.842105 C191.424084,309.888 190.574995,310.736842 189.528796,310.736842" id="Path" fill="#272359"></path>
                    <path d="M189.528796,270.947368 L161.099476,270.947368 C160.053277,270.947368 159.204188,270.098526 159.204188,269.052632 L159.204188,240.631579 C159.204188,239.585684 160.053277,238.736842 161.099476,238.736842 L189.528796,238.736842 C190.574995,238.736842 191.424084,239.585684 191.424084,240.631579 L191.424084,269.052632 C191.424084,270.098526 190.574995,270.947368 189.528796,270.947368" id="Path" fill="#6262CC"></path>
                    <path d="M189.528796,350.526316 L161.099476,350.526316 C160.053277,350.526316 159.204188,349.677474 159.204188,348.631579 L159.204188,320.210526 C159.204188,319.164632 160.053277,318.315789 161.099476,318.315789 L189.528796,318.315789 C190.574995,318.315789 191.424084,319.164632 191.424084,320.210526 L191.424084,348.631579 C191.424084,349.677474 190.574995,350.526316 189.528796,350.526316" id="Path" fill="#9795F9"></path>
                    <path d="M189.528796,231.157895 L161.099476,231.157895 C160.053277,231.157895 159.204188,230.309053 159.204188,229.263158 L159.204188,200.842105 C159.204188,199.796211 160.053277,198.947368 161.099476,198.947368 L189.528796,198.947368 C190.574995,198.947368 191.424084,199.796211 191.424084,200.842105 L191.424084,229.263158 C191.424084,230.309053 190.574995,231.157895 189.528796,231.157895" id="Path" fill="#3F3177"></path>
                    <path d="M229.329843,310.736842 L200.900524,310.736842 C199.854325,310.736842 199.005236,309.888 199.005236,308.842105 L199.005236,280.421053 C199.005236,279.375158 199.854325,278.526316 200.900524,278.526316 L229.329843,278.526316 C230.376042,278.526316 231.225131,279.375158 231.225131,280.421053 L231.225131,308.842105 C231.225131,309.888 230.376042,310.736842 229.329843,310.736842" id="Path" fill="#3F3177"></path>
                    <path d="M229.329843,270.947368 L200.900524,270.947368 C199.854325,270.947368 199.005236,270.098526 199.005236,269.052632 L199.005236,240.631579 C199.005236,239.585684 199.854325,238.736842 200.900524,238.736842 L229.329843,238.736842 C230.376042,238.736842 231.225131,239.585684 231.225131,240.631579 L231.225131,269.052632 C231.225131,270.098526 230.376042,270.947368 229.329843,270.947368" id="Path" fill="#9795F9"></path>
                    <path d="M229.329843,350.526316 L200.900524,350.526316 C199.854325,350.526316 199.005236,349.677474 199.005236,348.631579 L199.005236,320.210526 C199.005236,319.164632 199.854325,318.315789 200.900524,318.315789 L229.329843,318.315789 C230.376042,318.315789 231.225131,319.164632 231.225131,320.210526 L231.225131,348.631579 C231.225131,349.677474 230.376042,350.526316 229.329843,350.526316" id="Path" fill="#3F3177"></path>
                    <path d="M229.329843,231.157895 L200.900524,231.157895 C199.854325,231.157895 199.005236,230.309053 199.005236,229.263158 L199.005236,200.842105 C199.005236,199.796211 199.854325,198.947368 200.900524,198.947368 L229.329843,198.947368 C230.376042,198.947368 231.225131,199.796211 231.225131,200.842105 L231.225131,229.263158 C231.225131,230.309053 230.376042,231.157895 229.329843,231.157895" id="Path" fill="#6262CC"></path>
                    <path d="M200.900524,430.105263 L229.329843,430.105263 C230.376042,430.105263 231.225131,429.256421 231.225131,428.210526 L231.225131,399.789474 C231.225131,398.743579 230.376042,397.894737 229.329843,397.894737 L200.900524,397.894737 C199.854325,397.894737 199.005236,398.743579 199.005236,399.789474 L199.005236,428.210526 C199.005236,429.256421 199.854325,430.105263 200.900524,430.105263" id="Path" fill="#272359"></path>
                    <path d="M200.900524,390.315789 L229.329843,390.315789 C230.376042,390.315789 231.225131,389.466947 231.225131,388.421053 L231.225131,360 C231.225131,358.954105 230.376042,358.105263 229.329843,358.105263 L200.900524,358.105263 C199.854325,358.105263 199.005236,358.954105 199.005236,360 L199.005236,388.421053 C199.005236,389.466947 199.854325,390.315789 200.900524,390.315789" id="Path" fill="#6262CC"></path>
                    <path d="M161.099476,430.105263 L189.528796,430.105263 C190.574995,430.105263 191.424084,429.256421 191.424084,428.210526 L191.424084,399.789474 C191.424084,398.743579 190.574995,397.894737 189.528796,397.894737 L161.099476,397.894737 C160.053277,397.894737 159.204188,398.743579 159.204188,399.789474 L159.204188,428.210526 C159.204188,429.256421 160.053277,430.105263 161.099476,430.105263" id="Path" fill="#3F3177"></path>
                    <path d="M161.099476,390.315789 L189.528796,390.315789 C190.574995,390.315789 191.424084,389.466947 191.424084,388.421053 L191.424084,360 C191.424084,358.954105 190.574995,358.105263 189.528796,358.105263 L161.099476,358.105263 C160.053277,358.105263 159.204188,358.954105 159.204188,360 L159.204188,388.421053 C159.204188,389.466947 160.053277,390.315789 161.099476,390.315789" id="Path" fill="#9795F9"></path>
                    <path d="M121.298429,430.105263 L149.727749,430.105263 C150.773948,430.105263 151.623037,429.256421 151.623037,428.210526 L151.623037,399.789474 C151.623037,398.743579 150.773948,397.894737 149.727749,397.894737 L121.298429,397.894737 C120.25223,397.894737 119.403141,398.743579 119.403141,399.789474 L119.403141,428.210526 C119.403141,429.256421 120.25223,430.105263 121.298429,430.105263" id="Path" fill="#6262CC"></path>
                    <path d="M121.298429,390.315789 L149.727749,390.315789 C150.773948,390.315789 151.623037,389.466947 151.623037,388.421053 L151.623037,360 C151.623037,358.954105 150.773948,358.105263 149.727749,358.105263 L121.298429,358.105263 C120.25223,358.105263 119.403141,358.954105 119.403141,360 L119.403141,388.421053 C119.403141,389.466947 120.25223,390.315789 121.298429,390.315789" id="Path" fill="#3F3177"></path>
                    <path d="M81.4973822,430.105263 L109.926702,430.105263 C110.972901,430.105263 111.82199,429.256421 111.82199,428.210526 L111.82199,399.789474 C111.82199,398.743579 110.972901,397.894737 109.926702,397.894737 L81.4973822,397.894737 C80.4511832,397.894737 79.6020942,398.743579 79.6020942,399.789474 L79.6020942,428.210526 C79.6020942,429.256421 80.4511832,430.105263 81.4973822,430.105263" id="Path" fill="#9795F9"></path>
                    <path d="M81.4973822,390.315789 L109.926702,390.315789 C110.972901,390.315789 111.82199,389.466947 111.82199,388.421053 L111.82199,360 C111.82199,358.954105 110.972901,358.105263 109.926702,358.105263 L81.4973822,358.105263 C80.4511832,358.105263 79.6020942,358.954105 79.6020942,360 L79.6020942,388.421053 C79.6020942,389.466947 80.4511832,390.315789 81.4973822,390.315789" id="Path" fill="#6262CC"></path>
                </g>
            </g>
        </g>
    </g>
</svg>
